…
``` r
# Collect and summarize performance metrics for all hyperparameter combinations tested during the tuning process

collect_metrics(xgb_res)
```

    ## # A tibble: 30 × 12
    ##     mtry min_n tree_depth learn_rate loss_reduction sample_size .metric    
    ##    <int> <int>      <int>      <dbl>          <dbl>       <dbl> <chr>      
    ##  1     1     2          5   2.23e-10   0.0000000475       0.930 accuracy   
    ##  2     1     2          5   2.23e-10   0.0000000475       0.930 brier_class
    ##  3     1     2          5   2.23e-10   0.0000000475       0.930 roc_auc    
    ##  4     5    18         12   1.74e- 3  17.1                0.555 accuracy   
    ##  5     5    18         12   1.74e- 3  17.1                0.555 brier_class
    ##  6     5    18         12   1.74e- 3  17.1                0.555 roc_auc    
    ##  7     7    25          1   4.18e- 7   0.0147             0.128 accuracy   
    ##  8     7    25          1   4.18e- 7   0.0147             0.128 brier_class
    ##  9     7    25          1   4.18e- 7   0.0147             0.128 roc_auc    
    ## 10     9    16          3   1.32e- 7   0.000983           0.451 accuracy   
    ## # ℹ 20 more rows
    ## # ℹ 5 more variables: .estimator <chr>, mean <dbl>, n <int>, std_err <dbl>,
    ## #   .config <chr>
…
